{
  "type": "service_account",
  "project_id": "setmytest-d0ed9",
  "private_key_id": "3f26e84e75239c04532bda9a9eec3837f1ca77da",
  "private_key": "-----BEGIN PRIVATE KEY-----\nMIIEvQIBADANBgkqhkiG9w0BAQEFAASCBKcwggSjAgEAAoIBAQD6Ica3+1eLFaml\noPRX99k2NJkyEp7cNon31oIsxyt1cVOQG18iT0bMfyqpi6OotoCL/8iLsnwjFwlw\nYc+AYzSQeBxbgyEEkASqB0CkxHEzukVZkDAWmnW5gw3IfGXKIDJ3WK/Hjpxi/+J6\nJtD/yKFmaMjJ4jzkIBKPkxqlwBu7iDybrBKMzrpeED/fYByBC4tIMzZU8kdzGmdF\nhZsZvJPvXACYsd9lUWuJnq5SNT+zKweVLqlCBWcyNAFB7UJKh83EAFz0ySV8S8GP\n8tTDQJ3DiHWXMRHQSqOMdfVJX3w3lOppCaZJw4CmsKwE6P0BZgCu5mv/te8McOgu\nkUJ+DPMVAgMBAAECggEAAz7iLPLesG8o6hnjLHKY6zikgHg4YnySBBHe/cUyuhvl\n16DphH70EdbmljSA7k+PfHNYYqrGus7xxZO1ji/e6XYZ+IqvGimNzClz0Y+Cw9xX\n2CLyja7A2fmN+Z6d1J9RxosBq5Hyb+BsPYHcNknnHcvnR4bmYtCE1gamdl4+ZP15\nf4bYZtCG8mwQQlgdyfH4GdlaALR38Qm+0Fcz4mBiUPJE0SkjV7Rm3mBEOR6qQY9j\nBGNmKb3LfhCe+7fLBSbMLhC0PrkSTkAhEzN+3vGQgrMfXaLPiBwu97gaHgEN5Mmx\nzVVxz5YOv9NOqMWZD2HZEau08hQbVcla422OmVWVkwKBgQD+6jGc+m7hkRyolWzN\n9/d0EY9NxGi0Dr/yiShW7EpcWbMT1Ar20h2vh+4Kru6iPups0wN2vLKVI10tDqPZ\nKqrPHh5t4JgTfxm1zPZdcMtsYclG3wrOD7BtFZnfvhUpHvAQiNyt1afeqWEiTjV5\n4tbw87NPIQuNVE0dobX+bfwT1wKBgQD7Ml68LyL95NBmA2CpLgUs5I36LNGQQzdc\n2B8vQ9OC/uXBeSerIHdYfx2V25H+5/m4WD67kXYbAHBT0oUcpNOldvjetgFL/hn7\nX2edPOLVwMjpwPocrLPYM5tTk4i0Lbk6TMbB/V77Lq5E+CqoNAs85e5XL3ZC2EKg\n42NcWIcS8wKBgCl4pFWrkHp2BzmOBcOEgeeKK8w1FeulMqkck0mA66AWn8GsD5SU\nHmw+KwXl68DNh4no0nlwvYTx2ejIpvNfs6Y6eizaCyOw29ft3m7ZON8LEZnME4/u\nkX9NsljqLbsg42FtQqmtRsA8wia4no6TzvAoVZWcBKsbeehGNLuN3SLFAoGAPtM3\nPGuxnbyHnqwDleyLoNG87LAe7azSAOeQzRpyoRWtUvlBQZyKHNkWBi/3UMCmBUQU\n1Iap+lDexygk4KgcwwqBbfopUt9HkkYnPP1IYluoJEZ+h4NuK4mktH92tlGlPP6M\ny2HaSoo/TcKfsJfro5yCQs39DvTVnTWh2SvPBJ8CgYEA38rVSXMvvbPRYzT+vyKN\nmqAZoB6dS1jD1/p3pg+vJH08qMo1YzRIAFvhHvLRTjv/w5RsmjEPj0fLPUX45i8m\nYfZCzEwJ9EiiNHGakidzpzTqbkQ5Sw9YOFjSv1KsOrW43/02G0rC54KA7b2W25uX\np96zZU8GYDF+EpDjTvW5+Rw=\n-----END PRIVATE KEY-----\n",
  "client_email": "firebase-adminsdk-na3uw@setmytest-d0ed9.iam.gserviceaccount.com",
  "client_id": "101277440101366080028",
  "auth_uri": "https://accounts.google.com/o/oauth2/auth",
  "token_uri": "https://oauth2.googleapis.com/token",
  "auth_provider_x509_cert_url": "https://www.googleapis.com/oauth2/v1/certs",
  "client_x509_cert_url": "https://www.googleapis.com/robot/v1/metadata/x509/firebase-adminsdk-na3uw%40setmytest-d0ed9.iam.gserviceaccount.com"
}
